<svg xmlns="http://www.w3.org/2000/svg" width="105.764" height="131.28" viewBox="0 0 105.764 131.28">
  <g id="Logo" transform="translate(-160.063 -47.944)">
    <g id="Letter_D" data-name="Letter D" transform="translate(160.063 47.944)">
      <path id="Green_4" data-name="Green 4" d="M257.535,160.5l20.67,11.936-20.67,11.934Z" transform="translate(-195.522 -88.888)" fill="#a9c300" fill-rule="evenodd"/>
      <path id="Green_3" data-name="Green 3" d="M278.2,179.256v23.866l-20.67-11.932Z" transform="translate(-195.522 -95.713)" fill="#3a9927" fill-rule="evenodd"/>
      <path id="Green_2" data-name="Green 2" d="M257.535,198.014l20.67,11.932-20.67,11.938Z" transform="translate(-195.522 -102.537)" fill="#055629" fill-rule="evenodd"/>
      <path id="Green_1" data-name="Green 1" d="M245.718,198.014v23.87L225.05,209.945Z" transform="translate(-183.705 -102.537)" fill="#0e9168" fill-rule="evenodd"/>
      <path id="Blue_3" data-name="Blue 3" d="M225.049,216.768l20.667,11.938-20.67,11.933Z" transform="translate(-183.703 -109.359)" fill="#0099dc" fill-rule="evenodd"/>
      <path id="Blue_2" data-name="Blue 2" d="M213.229,216.768l0,23.872-20.671-11.933Z" transform="translate(-171.883 -109.359)" fill="#006baa" fill-rule="evenodd"/>
      <path id="Blue_1" data-name="Blue 1" d="M213.229,209.945l-20.674,11.938v-23.87Z" transform="translate(-171.883 -102.537)" fill="#00487d" fill-rule="evenodd"/>
      <path id="Purple_4" data-name="Purple 4" d="M180.735,198.014v23.87l-20.672-11.938Z" transform="translate(-160.063 -102.537)" fill="#381c49" fill-rule="evenodd"/>
      <path id="Purple_3" data-name="Purple 3" d="M160.063,179.256l20.672,11.934-20.672,11.932Z" transform="translate(-160.063 -95.713)" fill="#5f0973" fill-rule="evenodd"/>
      <path id="Purple_2" data-name="Purple 2" d="M180.735,160.5v23.87l-20.672-11.934Z" transform="translate(-160.063 -88.888)" fill="#a50065" fill-rule="evenodd"/>
      <path id="Purple_1" data-name="Purple 1" d="M160.063,141.738l20.672,11.933-20.672,11.936Z" transform="translate(-160.063 -82.065)" fill="#d1004b" fill-rule="evenodd"/>
      <path id="red_4" data-name="red 4" d="M180.735,122.981v23.867l-20.672-11.933Z" transform="translate(-160.063 -75.241)" fill="#950d1a" fill-rule="evenodd"/>
      <path id="red_3" data-name="red 3" d="M192.555,122.981l20.674,11.933-20.674,11.933Z" transform="translate(-171.883 -75.241)" fill="#dc0017" fill-rule="evenodd"/>
      <path id="red_2" data-name="red 2" d="M213.229,104.219v23.87l-20.674-11.933Z" transform="translate(-171.883 -68.416)" fill="#b60016" fill-rule="evenodd"/>
      <path id="red_1" data-name="red 1" d="M225.05,104.219l20.667,11.935L225.05,128.089Z" transform="translate(-183.705 -68.416)" fill="#d30b25" fill-rule="evenodd"/>
      <path id="Yellow_3" data-name="Yellow 3" d="M245.718,85.461V109.33L225.05,97.4Z" transform="translate(-183.705 -61.592)" fill="#e44100" fill-rule="evenodd"/>
      <path id="Yellow_2" data-name="Yellow 2" d="M225.05,66.7l20.667,11.935L225.05,90.571Z" transform="translate(-183.705 -54.768)" fill="#eb6200" fill-rule="evenodd"/>
      <path id="Yellow_1" data-name="Yellow 1" d="M245.718,47.944V71.813L225.05,59.878Z" transform="translate(-183.705 -47.944)" fill="#f79500" fill-rule="evenodd"/>
    </g>
    <g id="Cube" transform="translate(188.113 116.482)">
      <path id="_6" data-name="6" d="M217.447,179.8v15.349l-13.3-7.675Z" transform="translate(-204.151 -164.448)" fill="#e44100" fill-rule="evenodd"/>
      <path id="_5" data-name="5" d="M204.151,167.735l13.3,7.676-13.3,7.674Z" transform="translate(-204.151 -160.06)" fill="#eb6200" fill-rule="evenodd"/>
      <path id="_4" data-name="4" d="M217.447,155.671v15.351l-13.3-7.676Z" transform="translate(-204.151 -155.671)" fill="#f79500" fill-rule="evenodd"/>
      <path id="_3" data-name="3" d="M225.05,179.8v15.349l13.291-7.675Z" transform="translate(-211.754 -164.448)" fill="#e44100" fill-rule="evenodd"/>
      <path id="_2" data-name="2" d="M238.341,167.735,225.05,175.41l13.291,7.674Z" transform="translate(-211.754 -160.06)" fill="#eb6200" fill-rule="evenodd"/>
      <path id="_1" data-name="1" d="M225.05,155.671v15.351l13.291-7.676Z" transform="translate(-211.754 -155.671)" fill="#f79500" fill-rule="evenodd"/>
    </g>
    <g id="Square" transform="translate(226.933 74.475)">
      <g id="Purple_Square" data-name="Purple Square" transform="translate(17.586)">
        <rect id="Purple_2-2" data-name="Purple 2" width="11.896" height="11.892" fill="#381c49"/>
        <path id="Purple_1-2" data-name="Purple 1" d="M292.81,89.648h11.9V101.54Z" transform="translate(-292.81 -89.646)" fill="#6b1e7a" fill-rule="evenodd"/>
      </g>
      <g id="Small_Yellow_Square" data-name="Small Yellow Square" transform="translate(0 30.342)">
        <rect id="Yellow_2-2" data-name="Yellow 2" width="5.827" height="5.824" fill="#eb6200"/>
        <path id="Yellow_1-2" data-name="Yellow 1" d="M265.168,137.337H271v5.824Z" transform="translate(-265.168 -137.337)" fill="#f79500" fill-rule="evenodd"/>
      </g>
      <g id="Big_Yellow_Square" data-name="Big Yellow Square" transform="translate(2.232 10.774)">
        <rect id="Yellow_2-3" data-name="Yellow 2" width="10.036" height="10.038" fill="#eb6200"/>
        <path id="Yellow_1-3" data-name="Yellow 1" d="M268.679,106.579h10.034v10.038Z" transform="translate(-268.677 -106.579)" fill="#f79500" fill-rule="evenodd"/>
      </g>
      <g id="Green_Aquare" data-name="Green Aquare" transform="translate(11.028 38.31)">
        <rect id="Green_2-2" data-name="Green 2" width="7.641" height="7.642" fill="#055629"/>
        <path id="Green_1-2" data-name="Green 1" d="M282.5,149.86h7.641v7.64Z" transform="translate(-282.501 -149.86)" fill="#3a9927" fill-rule="evenodd"/>
      </g>
      <g id="Red_Square" data-name="Red Square" transform="translate(16.475 24.934)">
        <rect id="Red_2-2" data-name="Red 2" width="6.529" height="6.526" fill="#950d1a"/>
        <path id="Red_1-2" data-name="Red 1" d="M291.063,128.836h6.529v6.526Z" transform="translate(-291.063 -128.836)" fill="#d30b25" fill-rule="evenodd"/>
      </g>
      <g id="Blue_Square" data-name="Blue Square" transform="translate(28.981 27.743)">
        <rect id="Blue_2-2" data-name="Blue 2" width="9.913" height="9.91" fill="#00487d"/>
        <path id="Blue_1-2" data-name="Blue 1" d="M310.721,133.251h9.913v9.911Z" transform="translate(-310.721 -133.251)" fill="#0099dc" fill-rule="evenodd"/>
      </g>
    </g>
  </g>
</svg>
